Permutation Tests
…
`$$F = \frac{\text{between-group variability}}{\text{within-group variability}}$$`
`$$F = \frac{\sum_i n_i(\overline{X}_{i\cdot} - \overline{X})^2/(K-1)}{\sum_{ij} (X_{ij}-\overline{X}_{i\cdot})^2/(N-K)}$$`
`$$SumSqBtwn = \sum_i n_i(\overline{X}_{i\cdot} - \overline{X})^2$$`

---

## Creating a test statistic

```r
NHANES %>% select(HHIncomeMid, HealthGen) %>% 
  filter(!is.na(HealthGen)& !is.na(HHIncomeMid))
```

```
## # A tibble: 6,966 × 2
##    HHIncomeMid HealthGen
##          <int> <fct>    
##  1       30000 Good     
##  2       30000 Good     
##  3       30000 Good     
##  4       40000 Good     
##  5       87500 Vgood    
##  6       87500 Vgood    
##  7       87500 Vgood    
##  8       30000 Vgood    
##  9      100000 Vgood    
## 10       70000 Fair     
## # … with 6,956 more rows
```
…
---

##  Permuting the data 

```r
NHANES %>% 
  filter(!is.na(HealthGen)& !is.na(HHIncomeMid)) %>%
  mutate(IncomePerm = sample(HHIncomeMid, replace=FALSE)) %>%
  select(HealthGen, HHIncomeMid, IncomePerm) 
```

```
## # A tibble: 6,966 × 3
##    HealthGen HHIncomeMid IncomePerm
##    <fct>           <int>      <int>
##  1 Good            30000      60000
##  2 Good            30000      60000
##  3 Good            30000      87500
##  4 Good            40000     100000
##  5 Vgood           87500      50000
##  6 Vgood           87500      40000
##  7 Vgood           87500      87500
##  8 Vgood           30000      12500
##  9 Vgood          100000      40000
## 10 Fair            70000      87500
## # … with 6,956 more rows
```
…
SSB_perm_val <- map_dfr(1:reps, SSB_perm_func)

SSB_perm_val
```

```
## # A tibble: 1,000 × 1
##        teststat
##           <dbl>
##  1 15558101722.
##  2 16043464541.
##  3 13479105192.
##  4 12751834446.
##  5 12969481403.
##  6 12574155002.
##  7 17025427397.
##  8 15218082491.
##  9 17741088638.
## 10 14550341129.
## # … with 990 more rows
```
…
**Stratified two-sample test:**

* **For each instructor**, permute *perceived* gender assignments.
* Use difference in mean ratings for female-identified vs male-identified instructors.

---

## MacNell Data with permutation

<code class ='r hljs remark-code'>macnell %>% <br>&nbsp;&nbsp;<span style='background-color:#ffff7f'>group_by(tagender)</span> %>%<br>&nbsp;&nbsp;mutate(permTAID = sample(taidgender, replace=FALSE)) %>%<br>&nbsp;&nbsp;select(overall, tagender, taidgender, permTAID)</code>

```

## # A tibble: 47 × 4
## # Groups:   tagender [2]
##    overall tagender taidgender permTAID
##      <dbl>    <int>      <int>    <int>
##  1       4        0          1        0
##  2       4        0          1        1
##  3       5        0          1        1
##  4       5        0          1        0
##  5       5        0          1        1
##  6       4        0          1        1
##  7       4        0          1        0
##  8       5        0          1        0
##  9       4        0          1        1
## 10       3        0          1        1
## # … with 37 more rows
…
