Bootstrapping
…
## Example
- Hesketh and Everitt (2000) report on a study by Caplehorn and Bell (1991) that investigated the time (days) spent in a clinic for methadone maintenance treatment for people addicted to heroin.  

- The data include the amount of time that the subjects stayed in the facility until treatment was terminated. 

- For about 37% of the subjects, the study ended while they were still the in clinic (status=0).  

- Their survival time has been truncated.  For this reason we might not want to estimate the mean survival time, but rather some other measure of typical survival time.  Below we explore using the median as well as the 25% trimmed mean.   (From ISCAM Chance & Rossman, Investigation 4.5.3)

---

## The data

```
## # A tibble: 238 × 5
##       id clinic status times  dose
##    <dbl>  <dbl>  <dbl> <dbl> <dbl>
##  1     1      1      1   428    50
##  2     2      1      1   275    55
##  3     3      1      1   262    55
##  4     4      1      1   183    30
##  5     5      1      1   259    65
##  6     6      1      1   714    55
##  7     7      1      1   438    65
##  8     8      1      0   796    60
##  9     9      1      1   892    50
## 10    10      1      1   393    65
## # … with 228 more rows
```
…
.panel[.panel-name[bootstrapping]

```r
map_df(1:n_rep1, ~boot_stat_func(df = heroin))
```

```
## # A tibble: 100 × 4
##    boot_med boot_tr_mean obs_med obs_tr_mean
##       <dbl>        <dbl>   <dbl>       <dbl>
##  1    368         372.26   367.5       378.3
##  2    358         362.78   367.5       378.3
##  3    431         420.62   367.5       378.3
##  4    331.5       349.62   367.5       378.3
##  5    310.5       330.78   367.5       378.3
##  6    376         382.3    367.5       378.3
##  7    366         365.02   367.5       378.3
##  8    378.5       381.9    367.5       378.3
##  9    394         386.1    367.5       378.3
## 10    391.5       402.38   367.5       378.3
## # … with 90 more rows
```
…
.panel[.panel-name[bootstrap!]

```r
boot_stats <- map_df(1:n_rep1, ~boot_stat_func(df = heroin))

boot_stats
```

```
## # A tibble: 100 × 4
##    boot_med boot_tr_mean obs_med obs_tr_mean
##       <dbl>        <dbl>   <dbl>       <dbl>
##  1    368         372.26   367.5       378.3
##  2    358         362.78   367.5       378.3
##  3    431         420.62   367.5       378.3
##  4    331.5       349.62   367.5       378.3
##  5    310.5       330.78   367.5       378.3
##  6    376         382.3    367.5       378.3
##  7    366         365.02   367.5       378.3
##  8    378.5       381.9    367.5       378.3
##  9    394         386.1    367.5       378.3
## 10    391.5       402.38   367.5       378.3
## # … with 90 more rows
```
…
## Summarizing the double bootstrap

.panelset[

.panel[.panel-name[results]

```r
boot_2_stats %>%
  unnest(second_boot) %>%
  unnest(first_boot) 
```

```
## # A tibble: 476,000 × 12
##    resample1    id clinic status times prison  dose resample2 boot_med
##        <int> <dbl>  <dbl>  <dbl> <dbl>  <dbl> <dbl>     <int>    <dbl>
##  1         1   257      1      1   204      0    50         1      368
##  2         1   230      1      0    28      0    50         1      368
##  3         1   229      1      1   216      0    50         1      368
##  4         1   186      2      0   683      0   100         1      368
##  5         1   119      2      0   684      0    65         1      368
##  6         1    73      1      0   405      0    80         1      368
##  7         1    41      1      1   550      1    60         1      368
##  8         1    75      1      0   905      0    80         1      368
##  9         1    68      1      0   439      0    80         1      368
## 10         1   224      1      1   546      1    50         1      368
## # … with 475,990 more rows, and 3 more variables: boot_tr_mean <dbl>,
## #   boot_2_med <dbl>, boot_2_tr_mean <dbl>
```
…
boot_t_stats
```

```
## # A tibble: 100 × 7
##    resample1 boot_sd_med boot_sd_tr_mean boot_med boot_tr_mean boot_t_med
##        <int>       <dbl>           <dbl>    <dbl>        <dbl>      <dbl>
##  1         1      32.538          21.516    368         372.26   -0.15367
##  2         2      24.219          18.789    358         362.78   -0.61934
##  3         3      32.007          21.129    431         420.62    1.8121 
##  4         4      49.141          33.982    331.5       349.62   -0.84452
##  5         5      22.705          13.374    310.5       330.78   -2.7527 
##  6         6      20.264          19.908    376         382.3     0.14804
##  7         7      35.345          22.086    366         365.02   -0.19805
##  8         8      14.993          16.412    378.5       381.9     0.36683
##  9         9      27.584          20.857    394         386.1     0.76131
## 10        10      38.452          19.621    391.5       402.38    0.48111
## # … with 90 more rows, and 1 more variable: boot_t_tr_mean <dbl>
```
…
## 95% Bootstrap-t CI

Note that the t-value is needed (which requires a different SE for each bootstrap sample).

.panelset[

.panel[.panel-name[t-values]

```r
boot_t_stats %>%
  select(boot_t_med, boot_t_tr_mean)
```

```
## # A tibble: 100 × 2
##    boot_t_med boot_t_tr_mean
##         <dbl>          <dbl>
##  1   -0.15367       -0.24930
##  2   -0.61934       -0.78976
##  3    1.8121         2.0353 
##  4   -0.84452       -0.82389
##  5   -2.7527        -3.5024 
##  6    0.14804        0.23497
##  7   -0.19805       -0.57037
##  8    0.36683        0.26065
##  9    0.76131        0.40646
## 10    0.48111        1.2616 
## # … with 90 more rows
```
…
