Simulating: scenarios, datasets, random variables
…
.panel[.panel-name[output]

```r
sim_k_max
```

```
## # A tibble: 1,000 × 3
##    row_id     k   sum
##     <dbl> <dbl> <dbl>
##  1      1     2  1.05
##  2      2     2  1.68
##  3      3     1  1.39
##  4      4     1  1.47
##  5      5     2  1.03
##  6      6     1  1.45
##  7      7     1  1.41
##  8      8     1  1.83
##  9      9     1  1.17
## 10     10     2  1.42
## # … with 990 more rows
```
…
eqvar_data
```

```
## # A tibble: 1,000 × 2
## # Groups:   sim_id [1,000]
##    sim_id data              
##     <int> <list>            
##  1      1 <tibble [100 × 4]>
##  2      2 <tibble [100 × 4]>
##  3      3 <tibble [100 × 4]>
##  4      4 <tibble [100 × 4]>
##  5      5 <tibble [100 × 4]>
##  6      6 <tibble [100 × 4]>
##  7      7 <tibble [100 × 4]>
##  8      8 <tibble [100 × 4]>
##  9      9 <tibble [100 × 4]>
## 10     10 <tibble [100 × 4]>
## # … with 990 more rows
```
…
