Extensions
…
```r
boot_results
```

```
## # A tibble: 100 × 1
##    bsmean_mass
##          <dbl>
##  1      3730.9
##  2      3739.0
##  3      3675.7
##  4      3712.9
##  5      3800.4
##  6      3763.2
##  7      3665.8
##  8      3744.9
##  9      3657.0
## 10      3735.7
## # … with 90 more rows
```
…
```r
library(rvest)
weather <- read_html("https://www.timeanddate.com/weather/")
w <- html_table(html_nodes(weather, "table"))[[1]]
```

(tiny bit of wrangling of columns here)

```r
w
```

```
## # A tibble: 139 × 3
##    city         time        temp  
##    <chr>        <chr>       <chr> 
##  1 Accra        Tue 2:44 pm 90 °F 
##  2 Adelaide *   Wed 1:14 am 56 °F 
##  3 Algiers      Tue 3:44 pm 67 °F 
##  4 Almaty       Tue 8:44 pm 39 °F 
##  5 Amman        Tue 4:44 pm 61 °F 
##  6 Amsterdam    Tue 3:44 pm 41 °F 
##  7 Anadyr       Wed 2:44 am -10 °F
##  8 Anchorage    Tue 5:44 am 31 °F 
##  9 Ankara       Tue 5:44 pm 59 °F 
## 10 Antananarivo Tue 5:44 pm 79 °F 
## # … with 129 more rows
```
…
---

## Matching patterns

Or not Wednesday

```r
w %>% filter(str_detect(time, "Wed", negate = TRUE))
```

```
## # A tibble: 129 × 3
##    city         time         temp 
##    <chr>        <chr>        <chr>
##  1 Accra        Tue 2:44 pm  90 °F
##  2 Algiers      Tue 3:44 pm  67 °F
##  3 Almaty       Tue 8:44 pm  39 °F
##  4 Amman        Tue 4:44 pm  61 °F
##  5 Amsterdam    Tue 3:44 pm  41 °F
##  6 Anchorage    Tue 5:44 am  31 °F
##  7 Ankara       Tue 5:44 pm  59 °F
##  8 Antananarivo Tue 5:44 pm  79 °F
##  9 Asuncion *   Tue 11:44 am 86 °F
## 10 Athens       Tue 4:44 pm  60 °F
## # … with 119 more rows
```
…
```r
w %>%
  mutate(temp_num = as.numeric(str_sub(temp, 1, nchar(temp) -3))) 
```

```
## # A tibble: 139 × 4
##    city         time        temp   temp_num
##    <chr>        <chr>       <chr>     <dbl>
##  1 Accra        Tue 2:44 pm 90 °F        90
##  2 Adelaide *   Wed 1:14 am 56 °F        56
##  3 Algiers      Tue 3:44 pm 67 °F        67
##  4 Almaty       Tue 8:44 pm 39 °F        39
##  5 Amman        Tue 4:44 pm 61 °F        61
##  6 Amsterdam    Tue 3:44 pm 41 °F        41
##  7 Anadyr       Wed 2:44 am -10 °F      -10
##  8 Anchorage    Tue 5:44 am 31 °F        31
##  9 Ankara       Tue 5:44 pm 59 °F        59
## 10 Antananarivo Tue 5:44 pm 79 °F        79
## # … with 129 more rows
```

---

## Matching patterns

Or by looking for the number in the string.

```r
w %>%
  mutate(temp_num = str_extract(temp, "^-?\\d+")) 
```

```
## # A tibble: 139 × 4
##    city         time        temp   temp_num
##    <chr>        <chr>       <chr>  <chr>   
##  1 Accra        Tue 2:44 pm 90 °F  90      
##  2 Adelaide *   Wed 1:14 am 56 °F  56      
##  3 Algiers      Tue 3:44 pm 67 °F  67      
##  4 Almaty       Tue 8:44 pm 39 °F  39      
##  5 Amman        Tue 4:44 pm 61 °F  61      
##  6 Amsterdam    Tue 3:44 pm 41 °F  41      
##  7 Anadyr       Wed 2:44 am -10 °F -10     
##  8 Anchorage    Tue 5:44 am 31 °F  31      
##  9 Ankara       Tue 5:44 pm 59 °F  59      
## 10 Antananarivo Tue 5:44 pm 79 °F  79      
## # … with 129 more rows
```

---

## Matching patterns

How to fix the name which has a `*`?

```r
w %>%
  mutate(new_city = str_replace(city, " \\*", ""))
```

```
## # A tibble: 139 × 4
##    city         time        temp   new_city    
##    <chr>        <chr>       <chr>  <chr>       
##  1 Accra        Tue 2:44 pm 90 °F  Accra       
##  2 Adelaide *   Wed 1:14 am 56 °F  Adelaide    
##  3 Algiers      Tue 3:44 pm 67 °F  Algiers     
##  4 Almaty       Tue 8:44 pm 39 °F  Almaty      
##  5 Amman        Tue 4:44 pm 61 °F  Amman       
##  6 Amsterdam    Tue 3:44 pm 41 °F  Amsterdam   
##  7 Anadyr       Wed 2:44 am -10 °F Anadyr      
##  8 Anchorage    Tue 5:44 am 31 °F  Anchorage   
##  9 Ankara       Tue 5:44 pm 59 °F  Ankara      
## 10 Antananarivo Tue 5:44 pm 79 °F  Antananarivo
## # … with 129 more rows
```
…
