Decision Trees
…
.panel[.panel-name[tuning]

```r
penguin_tuned <- penguin_cart_wflow_tune %>%
  tune_grid(resamples = penguin_vfold, 
           grid = cart_grid) 

penguin_tuned %>% collect_metrics() %>%
  filter(.metric == "accuracy")
```

```
## # A tibble: 30 × 8
##    cost_complexity tree_depth .metric .estimator    mean     n   std_err .config
##              <dbl>      <dbl> <chr>   <chr>        <dbl> <int>     <dbl> <chr>  
##  1             0            2 accura… binary     0.69273     5 0.022573  Prepro…
##  2             0.1          2 accura… binary     0.66895     5 0.015219  Prepro…
##  3             0.2          2 accura… binary     0.66895     5 0.015219  Prepro…
##  4             0.3          2 accura… binary     0.66895     5 0.015219  Prepro…
##  5             0.4          2 accura… binary     0.55953     5 0.024203  Prepro…
##  6             0.5          2 accura… binary     0.53261     5 0.0064040 Prepro…
##  7             0            4 accura… binary     0.84251     5 0.021638  Prepro…
##  8             0.1          4 accura… binary     0.82553     5 0.016794  Prepro…
##  9             0.2          4 accura… binary     0.66895     5 0.015219  Prepro…
## 10             0.3          4 accura… binary     0.66895     5 0.015219  Prepro…
## # … with 20 more rows
```
…
