Working with Data in R
…
## `filter()`

Allows you to select a subset of the **rows** of a data frame. The first
argument is the name of the data frame, the following arguments are the
filters that you'd like to apply

For all flights on January 1st:

```r
filter(flights, month == 1, day == 1)
```

```
## # A tibble: 842 × 19
##     year month   day dep_time sched_dep_time dep_delay arr_time sched_arr_time
##    <int> <int> <int>    <int>          <int>     <dbl>    <int>          <int>
##  1  2013     1     1      517            515         2      830            819
##  2  2013     1     1      533            529         4      850            830
##  3  2013     1     1      542            540         2      923            850
##  4  2013     1     1      544            545        -1     1004           1022
##  5  2013     1     1      554            600        -6      812            837
##  6  2013     1     1      554            558        -4      740            728
##  7  2013     1     1      555            600        -5      913            854
##  8  2013     1     1      557            600        -3      709            723
##  9  2013     1     1      557            600        -3      838            846
## 10  2013     1     1      558            600        -2      753            745
## # … with 832 more rows, and 11 more variables: arr_delay <dbl>, carrier <chr>,
## #   flight <int>, tailnum <chr>, origin <chr>, dest <chr>, air_time <dbl>,
## #   distance <dbl>, hour <dbl>, minute <dbl>, time_hour <dttm>
```
…
## Constructing filters

Filters are constructed of **logical operators**: `<`, `>`, `<=`, `>=`, `==`,
`!=` (and some others).

Adding them one by one to `filter()` is akin to saying "this AND that". To say
"this OR that OR both", use |.

```r
filter(flights, month == 1 | month == 2)
```

```
## # A tibble: 51,955 × 19
##     year month   day dep_time sched_dep_time dep_delay arr_time sched_arr_time
##    <int> <int> <int>    <int>          <int>     <dbl>    <int>          <int>
##  1  2013     1     1      517            515         2      830            819
##  2  2013     1     1      533            529         4      850            830
##  3  2013     1     1      542            540         2      923            850
##  4  2013     1     1      544            545        -1     1004           1022
##  5  2013     1     1      554            600        -6      812            837
##  6  2013     1     1      554            558        -4      740            728
##  7  2013     1     1      555            600        -5      913            854
##  8  2013     1     1      557            600        -3      709            723
##  9  2013     1     1      557            600        -3      838            846
## 10  2013     1     1      558            600        -2      753            745
## # … with 51,945 more rows, and 11 more variables: arr_delay <dbl>,
## #   carrier <chr>, flight <int>, tailnum <chr>, origin <chr>, dest <chr>,
## #   air_time <dbl>, distance <dbl>, hour <dbl>, minute <dbl>, time_hour <dttm>
```
…
---

## `distinct()`

A common use of `select()` is to find out which values a set of variables takes.  This is particularly useful in conjunction with the `distinct()` verb which only  returns the unique values in a table.

What do the following data correspond to?

```r
distinct(select(flights, origin, dest))
```

```
## # A tibble: 224 × 2
##    origin dest 
##    <chr>  <chr>
##  1 EWR    IAH  
##  2 LGA    IAH  
##  3 JFK    MIA  
##  4 JFK    BQN  
##  5 LGA    ATL  
##  6 EWR    ORD  
##  7 EWR    FLL  
##  8 LGA    IAD  
##  9 JFK    MCO  
## 10 LGA    ORD  
## # … with 214 more rows
```

---

## `mutate()`

As well as selecting from the set of existing columns, it's often useful to add 
new columns that are functions of existing columns. This is the job of `mutate()`:

```r
mutate(flights, gain = arr_delay - dep_delay)
```

```
## # A tibble: 336,776 × 20
##     year month   day dep_time sched_dep_time dep_delay arr_time sched_arr_time
##    <int> <int> <int>    <int>          <int>     <dbl>    <int>          <int>
##  1  2013     1     1      517            515         2      830            819
##  2  2013     1     1      533            529         4      850            830
##  3  2013     1     1      542            540         2      923            850
##  4  2013     1     1      544            545        -1     1004           1022
##  5  2013     1     1      554            600        -6      812            837
##  6  2013     1     1      554            558        -4      740            728
##  7  2013     1     1      555            600        -5      913            854
##  8  2013     1     1      557            600        -3      709            723
##  9  2013     1     1      557            600        -3      838            846
## 10  2013     1     1      558            600        -2      753            745
## # … with 336,766 more rows, and 12 more variables: arr_delay <dbl>,
## #   carrier <chr>, flight <int>, tailnum <chr>, origin <chr>, dest <chr>,
## #   air_time <dbl>, distance <dbl>, hour <dbl>, minute <dbl>, time_hour <dttm>,
## #   gain <dbl>
```
…
## `group_by()`

Find the fastest airplanes in the bunch, measured as the average speed per airplane.

```r
by_tailnum <- group_by(speed, tailnum)
avg_speed <- summarize(by_tailnum, 
                       count = n(), 
                       avg_speed = mean(speed, na.rm = TRUE))
arrange(avg_speed, desc(avg_speed))
```

```
## # A tibble: 4,044 × 3
##    tailnum count avg_speed
##    <chr>   <int>     <dbl>
##  1 N228UA      1      501.
##  2 N315AS      1      499.
##  3 N654UA      1      499.
##  4 N819AW      1      490.
##  5 N382HA     26      486.
##  6 N388HA     36      484.
##  7 N391HA     21      484.
##  8 N777UA      1      483.
##  9 N385HA     28      483.
## 10 N392HA     13      482.
## # … with 4,034 more rows
```
…
`x %>% f(y)` is the same as `f(x, y)`

` y %>% f(x, ., z)` is the same as `f(x,y,z)`
---

```r
flights2 %>%
  select(tailnum, speed) %>%
  group_by(tailnum) %>% 
  summarize(number = n(), avg_speed = mean(speed, na.rm = TRUE)) %>%
  arrange(desc(avg_speed))
```

```
## # A tibble: 4,044 × 3
##    tailnum number avg_speed
##    <chr>    <int>     <dbl>
##  1 N228UA       1      501.
##  2 N315AS       1      499.
##  3 N654UA       1      499.
##  4 N819AW       1      490.
##  5 N382HA      26      486.
##  6 N388HA      36      484.
##  7 N391HA      21      484.
##  8 N777UA       1      483.
##  9 N385HA      28      483.
## 10 N392HA      13      482.
## # … with 4,034 more rows
```
…
---

```r
babynames %>% 
  dplyr::select(-prop) %>% 
  tidyr::pivot_wider(names_from = sex, values_from = n) %>%
  dplyr::filter(!is.na(F) & !is.na(M)) %>%
  arrange(desc(year), desc(M))
```

```
## # A tibble: 168,381 × 4
##     year name         F     M
##    <dbl> <chr>    <int> <int>
##  1  2017 Liam        36 18728
##  2  2017 Noah       170 18326
##  3  2017 William     18 14904
##  4  2017 James       77 14232
##  5  2017 Logan     1103 13974
##  6  2017 Benjamin     8 13733
##  7  2017 Mason       58 13502
##  8  2017 Elijah      26 13268
##  9  2017 Oliver      15 13141
## 10  2017 Jacob       16 13106
## # … with 168,371 more rows
```

---

```r
babynames %>% 
  tidyr::pivot_wider(names_from = sex, values_from = n) %>%
  mutate(maxcount = pmax(F,M, na.rm = TRUE)) %>%
  arrange(desc(maxcount))
```

```
## # A tibble: 1,924,653 × 6
##     year name      prop     F     M maxcount
##    <dbl> <chr>    <dbl> <int> <int>    <int>
##  1  1947 Linda   0.0548 99686    NA    99686
##  2  1948 Linda   0.0552 96209    NA    96209
##  3  1947 James   0.0510    NA 94756    94756
##  4  1957 Michael 0.0424    NA 92695    92695
##  5  1947 Robert  0.0493    NA 91642    91642
##  6  1949 Linda   0.0518 91016    NA    91016
##  7  1956 Michael 0.0423    NA 90620    90620
##  8  1958 Michael 0.0420    NA 90520    90520
##  9  1948 James   0.0497    NA 88588    88588
## 10  1954 Michael 0.0428    NA 88514    88514
## # … with 1,924,643 more rows
```
…
