Computational Statistics
…
Running the code.31

babynames <- babynames::babynames |> 
  rename(num = n)

babynames |>
  filter(name %in% c("Jane", "Mary")) |> 
  # just the Janes and Marys
  group_by(name, year) |> 
  # for each year for each name
  summarize(total = sum(num))

# A tibble: 276 × 3
# Groups:   name [2]
   name   year total
   <chr> <dbl> <int>
 1 Jane   1880   215
 2 Jane   1881   216
 3 Jane   1882   254
 4 Jane   1883   247
 5 Jane   1884   295
 6 Jane   1885   330
 7 Jane   1886   306
 8 Jane   1887   288
 9 Jane   1888   446
10 Jane   1889   374
# ℹ 266 more rows

babynames |>
  filter(name %in% c("Jane", "Mary")) |> 
  group_by(name, year) |> 
  summarize(number = sum(num))

# A tibble: 276 × 3
# Groups:   name [2]
   name   year number
   <chr> <dbl>  <int>
 1 Jane   1880    215
 2 Jane   1881    216
 3 Jane   1882    254
 4 Jane   1883    247
 5 Jane   1884    295
 6 Jane   1885    330
 7 Jane   1886    306
 8 Jane   1887    288
 9 Jane   1888    446
10 Jane   1889    374
# ℹ 266 more rows

babynames |>
  filter(name %in% c("Jane", "Mary")) |> 
  group_by(name, year) |> 
  summarize(n_distinct(name))

# A tibble: 276 × 3
# Groups:   name [2]
   name   year `n_distinct(name)`
   <chr> <dbl>              <int>
 1 Jane   1880                  1
 2 Jane   1881                  1
 3 Jane   1882                  1
 4 Jane   1883                  1
 5 Jane   1884                  1
 6 Jane   1885                  1
 7 Jane   1886                  1
 8 Jane   1887                  1
 9 Jane   1888                  1
10 Jane   1889                  1
# ℹ 266 more rows

babynames |>
  filter(name %in% c("Jane", "Mary")) |> 
  group_by(name, year) |> 
  summarize(n_distinct(num))

# A tibble: 276 × 3
# Groups:   name [2]
   name   year `n_distinct(num)`
   <chr> <dbl>             <int>
 1 Jane   1880                 1
 2 Jane   1881                 1
 3 Jane   1882                 1
 4 Jane   1883                 1
 5 Jane   1884                 1
 6 Jane   1885                 1
 7 Jane   1886                 1
 8 Jane   1887                 1
 9 Jane   1888                 1
10 Jane   1889                 1
# ℹ 266 more rows
…
Error in `summarize()`:
ℹ In argument: `sum(name)`.
ℹ In group 1: `name = "Jane"` and `year = 1880`.
Caused by error in `base::sum()`:
! invalid 'type' (character) of argument

babynames |>
  filter(name %in% c("Jane", "Mary")) |> 
  group_by(name, year) |> 
  summarize(mean(num))

# A tibble: 276 × 3
# Groups:   name [2]
   name   year `mean(num)`
   <chr> <dbl>       <dbl>
 1 Jane   1880         215
 2 Jane   1881         216
 3 Jane   1882         254
 4 Jane   1883         247
 5 Jane   1884         295
 6 Jane   1885         330
 7 Jane   1886         306
 8 Jane   1887         288
 9 Jane   1888         446
10 Jane   1889         374
# ℹ 266 more rows

babynames |>
  filter(name %in% c("Jane", "Mary")) |> 
  group_by(name, year) |> 
  summarize(median(num))

# A tibble: 276 × 3
# Groups:   name [2]
   name   year `median(num)`
   <chr> <dbl>         <dbl>
 1 Jane   1880           215
 2 Jane   1881           216
 3 Jane   1882           254
 4 Jane   1883           247
 5 Jane   1884           295
 6 Jane   1885           330
 7 Jane   1886           306
 8 Jane   1887           288
 9 Jane   1888           446
10 Jane   1889           374
# ℹ 266 more rows
…
sleep_long <- sleep_wide |>
  pivot_longer(cols = -Subject,
               names_to = "day",
               names_prefix = "day_",
               values_to = "reaction_time")

sleep_long

# A tibble: 180 × 3
   Subject day   reaction_time
     <dbl> <chr>         <dbl>
 1     308 0              250.
 2     308 1              259.
 3     308 2              251.
 4     308 3              321.
 5     308 4              357.
 6     308 5              415.
 7     308 6              382.
 8     308 7              290.
 9     308 8              431.
10     308 9              466.
# ℹ 170 more rows
…
