Bagging and Random Forests
…
.panel[.panel-name[param]

```r
penguin_grid <- grid_regular(mtry(range = c(2,7)),
                             trees(range = c(50,500)),
                             levels = 5)

penguin_grid
```

```
## # A tibble: 25 × 2
##     mtry trees
##    <int> <int>
##  1     2    50
##  2     3    50
##  3     4    50
##  4     5    50
##  5     7    50
##  6     2   162
##  7     3   162
##  8     4   162
##  9     5   162
## 10     7   162
## # … with 15 more rows
```
…
