Support Vector Machines
…
.panel[.panel-name[param]

```r
# the tuned parameters also have default values you can use
penguin_grid <- grid_regular(cost(),
                             rbf_sigma(),
                             levels = 8)

penguin_grid
```

```
## # A tibble: 64 × 2
##           cost  rbf_sigma
##          <dbl>      <dbl>
##  1  0.00097656 1     e-10
##  2  0.0043128  1     e-10
##  3  0.019047   1     e-10
##  4  0.084119   1     e-10
##  5  0.37150    1     e-10
##  6  1.6407     1     e-10
##  7  7.2458     1     e-10
##  8 32          1     e-10
##  9  0.00097656 2.6827e- 9
## 10  0.0043128  2.6827e- 9
## # … with 54 more rows
```
…
