Decision Trees
…
.panel[.panel-name[tuning]

```r
penguin_tuned <- penguin_cart_wflow_tune %>%
  tune_grid(resamples = penguin_vfold, 
           grid = cart_grid) 

penguin_tuned %>% collect_metrics() %>%
  filter(.metric == "accuracy")
```

```
## # A tibble: 36 × 8
##    cost_complexity tree_depth .metric  .estimator    mean     n  std_err .config
##              <dbl>      <dbl> <chr>    <chr>        <dbl> <int>    <dbl> <chr>  
##  1         0                1 accuracy binary     0.66895     5 0.015219 Prepro…
##  2         0.00001          1 accuracy binary     0.66895     5 0.015219 Prepro…
##  3         0.0001           1 accuracy binary     0.66895     5 0.015219 Prepro…
##  4         0.001            1 accuracy binary     0.66895     5 0.015219 Prepro…
##  5         0.01             1 accuracy binary     0.66895     5 0.015219 Prepro…
##  6         0.1              1 accuracy binary     0.66895     5 0.015219 Prepro…
##  7         0                2 accuracy binary     0.69273     5 0.022573 Prepro…
##  8         0.00001          2 accuracy binary     0.69273     5 0.022573 Prepro…
##  9         0.0001           2 accuracy binary     0.69273     5 0.022573 Prepro…
## 10         0.001            2 accuracy binary     0.69273     5 0.022573 Prepro…
## # … with 26 more rows
```
…
