Permutation Tests – Computational Statistics
…
Overall difference

We can measure the overall differences as the amount of variability between each of the means and the overall mean:

\[F = \frac{\text{between-group variability}}{\text{within-group variability}}\] \[F = \frac{\sum_i n_i(\overline{X}_{i\cdot} - \overline{X})^2/(K-1)}{\sum_{ij} (X_{ij}-\overline{X}_{i\cdot})^2/(N-K)}\] \[SumSqBtwn = \sum_i n_i(\overline{X}_{i\cdot} - \overline{X})^2\]

Creating a test statistic

NHANES  |> select(HHIncomeMid, HealthGen)  |> 
  filter(!is.na(HealthGen)& !is.na(HHIncomeMid))

# A tibble: 6,966 × 2
   HHIncomeMid HealthGen
         <int> <fct>    
 1       30000 Good     
 2       30000 Good     
 3       30000 Good     
 4       40000 Good     
 5       87500 Vgood    
 6       87500 Vgood    
 7       87500 Vgood    
 8       30000 Vgood    
 9      100000 Vgood    
10       70000 Fair     
# ℹ 6,956 more rows
…
\[SumSqBtwn = \sum_i n_i(\overline{X}_{i\cdot} - \overline{X})^2\]

sum(NH.means  |> select(count)  |> pull() * 
      (NH.means  |> select(IncMean)  |> pull() - GM)^2)

[1] 488767088754

Permuting the data

NHANES  |> 
  filter(!is.na(HealthGen)& !is.na(HHIncomeMid))  |>
  mutate(IncomePerm = sample(HHIncomeMid, replace=FALSE))  |>
  select(HealthGen, HHIncomeMid, IncomePerm) 

# A tibble: 6,966 × 3
   HealthGen HHIncomeMid IncomePerm
   <fct>           <int>      <int>
 1 Good            30000     100000
 2 Good            30000     100000
 3 Good            30000      40000
 4 Good            40000      30000
 5 Vgood           87500      40000
 6 Vgood           87500      12500
 7 Vgood           87500      70000
 8 Vgood           30000     100000
 9 Vgood          100000      87500
10 Fair            70000     100000
# ℹ 6,956 more rows
…
SSB_perm_func <- function(.x){
  NHANES  |> 
        filter(!is.na(HealthGen)& !is.na(HHIncomeMid))  |>
        mutate(IncomePerm = sample(HHIncomeMid, replace=FALSE))  |>
        group_by(HealthGen)  |> 
        summarize(IncMeanP = mean(IncomePerm), count=n())  |>
        summarize(teststat = sum(count*(IncMeanP - GM)^2)) 
}

SSB_perm_val <- map(1:reps, SSB_perm_func) |> 
  list_rbind()

SSB_perm_val

# A tibble: 1,000 × 1
       teststat
          <dbl>
 1 13765108404.
 2 13674693002.
 3 14993720191.
 4 15999631524.
 5 19505133840.
 6 11888626574.
 7 13903654157.
 8 12432195571.
 9 17200501281.
10 13326819094.
# ℹ 990 more rows
…
Analysis goal

Want to know if the population average score for the perceived gender is different.

\[H_0:  \mu_{ID.Female} = \mu_{ID.Male}\]

Although for the permutation test, under the null hypothesis not only are the means of the population distributions the same, but the variance and all other aspects of the distributions across perceived gender.

MacNell Data without permutation

macnell  |>
  select(overall, tagender, taidgender) 

# A tibble: 47 × 3
   overall tagender taidgender
     <dbl>    <dbl>      <dbl>
 1       4        0          1
 2       4        0          1
 3       5        0          1
 4       5        0          1
 5       5        0          1
 6       4        0          1
 7       4        0          1
 8       5        0          1
 9       4        0          1
10       3        0          1
# ℹ 37 more rows
…
Stratified two-sample test:

For each instructor, permute perceived gender assignments.

Use difference in mean ratings for female-identified vs male-identified instructors.

MacNell Data with permutation

macnell  |> 
  group_by(tagender)  |>
  mutate(permTAID = sample(taidgender, replace=FALSE))  |>
  select(overall, tagender, taidgender, permTAID) 

# A tibble: 47 × 4
# Groups:   tagender [2]
   overall tagender taidgender permTAID
     <dbl>    <dbl>      <dbl>    <dbl>
 1       4        0          1        0
 2       4        0          1        1
 3       5        0          1        1
 4       5        0          1        0
 5       5        0          1        0
 6       4        0          1        1
 7       4        0          1        0
 8       5        0          1        0
 9       4        0          1        1
10       3        0          1        1
# ℹ 37 more rows
…
