Simulating – Computational Statistics
…
538 simulates many many elections to see how the individual state percentages play out.

Election Data

(Big caveat: the data are old!)

# A tibble: 54 × 5
   date                state                Harris Trump evotes
   <dttm>              <chr>                 <dbl> <dbl>  <dbl>
 1 2020-11-03 00:00:00 Alabama                37.8 57.4       9
 2 2020-11-03 00:00:00 Alaska                 43.6 51.2       3
 3 2024-09-17 00:00:00 Arizona                46.9 47.3      11
 4 2020-11-03 00:00:00 Arkansas               36.2 58.9       6
 5 2024-09-17 00:00:00 California             59.5 35.3      54
 6 2020-11-03 00:00:00 Colorado               53.6 41.1      10
 7 2020-11-03 00:00:00 Connecticut            58.6 32.4       7
 8 2020-11-03 00:00:00 Delaware               58.9 34.6       3
 9 2020-11-03 00:00:00 District of Columbia   90.8  5.78      3
10 2024-09-17 00:00:00 Florida                45.4 49.4      30
# ℹ 44 more rows
…
eqvar_data <- data.frame(row_id = seq(1, n_obs, 1)) |>
  slice(rep(row_id, each = reps)) |>
  mutate(
    sim_id = rep(1:reps, n_obs),
    x1 = rep(c(0,1), each = n()/2),
    x2 = runif(n(), min = -1, max = 1),
    y = beta0 + beta1*x1 + beta2*x2 + rnorm(n(), mean = 0, sd = 1)
  ) |>
  arrange(sim_id, row_id) |>
  group_by(sim_id) |>
  nest()

eqvar_data

# A tibble: 1,000 × 2
# Groups:   sim_id [1,000]
   sim_id data              
    <int> <list>            
 1      1 <tibble [100 × 4]>
 2      2 <tibble [100 × 4]>
 3      3 <tibble [100 × 4]>
 4      4 <tibble [100 × 4]>
 5      5 <tibble [100 × 4]>
 6      6 <tibble [100 × 4]>
 7      7 <tibble [100 × 4]>
 8      8 <tibble [100 × 4]>
 9      9 <tibble [100 × 4]>
10     10 <tibble [100 × 4]>
# ℹ 990 more rows
…
