Support Vector Machines – Computational Statistics
…
Computational engine: kernlab 

set.seed(234)
penguin_folds <- vfold_cv(penguin_train,
                          v = 4)

# the tuned parameters also have default values you can use
penguin_grid <- grid_regular(cost(),
                             rbf_sigma(),
                             levels = 8)

penguin_grid

# A tibble: 64 × 2
        cost     rbf_sigma
       <dbl>         <dbl>
 1  0.000977 0.0000000001 
 2  0.00431  0.0000000001 
 3  0.0190   0.0000000001 
 4  0.0841   0.0000000001 
 5  0.371    0.0000000001 
 6  1.64     0.0000000001 
 7  7.25     0.0000000001 
 8 32        0.0000000001 
 9  0.000977 0.00000000268
10  0.00431  0.00000000268
# ℹ 54 more rows
…
SVM model output - best CV parameters

penguin_svm_rbf_tune |>
  collect_metrics() |>
  filter(.metric == "accuracy") |> 
  arrange(desc(mean))

# A tibble: 64 × 8
     cost rbf_sigma .metric  .estimator  mean     n std_err .config             
    <dbl>     <dbl> <chr>    <chr>      <dbl> <int>   <dbl> <chr>               
 1  0.371   1       accuracy binary     0.891     4 0.0123  Preprocessor1_Model…
 2 32       0.00139 accuracy binary     0.884     4 0.00747 Preprocessor1_Model…
 3  1.64    0.0373  accuracy binary     0.884     4 0.00747 Preprocessor1_Model…
 4 32       1       accuracy binary     0.880     4 0.0207  Preprocessor1_Model…
 5  1.64    1       accuracy binary     0.880     4 0.00791 Preprocessor1_Model…
 6  7.25    1       accuracy binary     0.872     4 0.0168  Preprocessor1_Model…
 7  7.25    0.0373  accuracy binary     0.872     4 0.0145  Preprocessor1_Model…
 8  7.25    0.00139 accuracy binary     0.868     4 0.0329  Preprocessor1_Model…
 9 32       0.0373  accuracy binary     0.868     4 0.0136  Preprocessor1_Model…
10  0.371   0.0373  accuracy binary     0.864     4 0.0295  Preprocessor1_Model…
# ℹ 54 more rows
…
