Bagging and Random Forests – Computational Statistics
…
Engine-Specific Arguments:
  importance = permutation

Computational engine: ranger 

set.seed(234)
penguin_folds <- vfold_cv(penguin_train,
                          v = 4)

penguin_grid <- grid_regular(mtry(range = c(2,7)),
                             trees(range = c(1,500)), levels = 5)

penguin_grid

# A tibble: 25 × 2
    mtry trees
   <int> <int>
 1     2     1
 2     3     1
 3     4     1
 4     5     1
 5     7     1
 6     2   125
 7     3   125
 8     4   125
 9     5   125
10     7   125
# ℹ 15 more rows
…
