Decision Trees – Computational Statistics
…
penguin_cart_wflow_tune <- workflow() |>
  add_model(penguin_cart_tune) |>
  add_recipe(penguin_cart_tune_recipe)

penguin_tuned <- penguin_cart_wflow_tune |>
  tune_grid(resamples = penguin_vfold, 
           grid = cart_grid) 

penguin_tuned |> collect_metrics() |>
  filter(.metric == "accuracy") |> 
  arrange(desc(mean))

# A tibble: 36 × 8
   cost_complexity tree_depth .metric  .estimator  mean     n std_err .config   
             <dbl>      <dbl> <chr>    <chr>      <dbl> <int>   <dbl> <chr>     
 1         0                5 accuracy binary     0.847     5  0.0203 Preproces…
 2         0.00001          5 accuracy binary     0.847     5  0.0203 Preproces…
 3         0.0001           5 accuracy binary     0.847     5  0.0203 Preproces…
 4         0.001            5 accuracy binary     0.847     5  0.0203 Preproces…
 5         0                6 accuracy binary     0.847     5  0.0203 Preproces…
 6         0.00001          6 accuracy binary     0.847     5  0.0203 Preproces…
 7         0.0001           6 accuracy binary     0.847     5  0.0203 Preproces…
 8         0.001            6 accuracy binary     0.847     5  0.0203 Preproces…
 9         0                4 accuracy binary     0.843     5  0.0216 Preproces…
10         0.00001          4 accuracy binary     0.843     5  0.0216 Preproces…
# ℹ 26 more rows
…
