Bootstrapping – Computational Statistics
…
From Hesterberg et al., Chapter 16 of Introduction to the Practice of Statistics by Moore, McCabe, and Craig. The left image represents the mean with n=50. The center image represents the mean with n=9. The right image represents the median with n=15.

Example

Everitt and Rabe-Hesketh (2006) report on a study by Caplehorn and Bell (1991) that investigated the time (days) spent in a clinic for methadone maintenance treatment for people addicted to heroin.

The data include the amount of time that the subjects stayed in the facility until treatment was terminated.

For about 37% of the subjects, the study ended while they were still the in clinic (status=0).

Their survival time has been truncated. For this reason we might not want to estimate the mean survival time, but rather some other measure of typical survival time. Below we explore using the median as well as the 25% trimmed mean. (From Chance and Rossman (2018), Investigation 4.5.3)

The data

# A tibble: 238 × 5
      id clinic status times  dose
   <dbl>  <dbl>  <dbl> <dbl> <dbl>
 1     1      1      1   428    50
 2     2      1      1   275    55
 3     3      1      1   262    55
 4     4      1      1   183    30
 5     5      1      1   259    65
 6     6      1      1   714    55
 7     7      1      1   438    65
 8     8      1      0   796    60
 9     9      1      1   892    50
10    10      1      1   393    65
# ℹ 228 more rows
…
Bootstrapping with map().

set variables
data
boot stat function
resample function
bootstrapping

n_rep1 <- 100
n_rep2 <- 20
set.seed(4747)

heroin

# A tibble: 238 × 6
      id clinic status times prison  dose
   <dbl>  <dbl>  <dbl> <dbl>  <dbl> <dbl>
 1     1      1      1   428      0    50
 2     2      1      1   275      1    55
 3     3      1      1   262      0    55
 4     4      1      1   183      0    30
 5     5      1      1   259      1    65
 6     6      1      1   714      0    55
 7     7      1      1   438      1    65
 8     8      1      0   796      1    60
 9     9      1      1   892      0    50
10    10      1      1   393      1    65
# ℹ 228 more rows
…
boot_1_func <- function(df){
  df |> 
    sample_frac(size=1, replace=TRUE)
}

map(1:n_rep1, ~boot_stat_func(df = heroin)) |> 
  list_rbind()

# A tibble: 100 × 4
   boot_med boot_tr_mean obs_med obs_tr_mean
      <dbl>        <dbl>   <dbl>       <dbl>
 1     368          372.    368.        378.
 2     358          363.    368.        378.
 3     431          421.    368.        378.
 4     332.         350.    368.        378.
 5     310.         331.    368.        378.
 6     376          382.    368.        378.
 7     366          365.    368.        378.
 8     378.         382.    368.        378.
 9     394          386.    368.        378.
10     392.         402.    368.        378.
# ℹ 90 more rows
…
boot_stats <- map(1:n_rep1, ~boot_stat_func(df = heroin)) |> 
  list_rbind()

boot_stats

# A tibble: 100 × 4
   boot_med boot_tr_mean obs_med obs_tr_mean
      <dbl>        <dbl>   <dbl>       <dbl>
 1     368          372.    368.        378.
 2     358          363.    368.        378.
 3     431          421.    368.        378.
 4     332.         350.    368.        378.
 5     310.         331.    368.        378.
 6     376          382.    368.        378.
 7     366          365.    368.        378.
 8     378.         382.    368.        378.
 9     394          386.    368.        378.
10     392.         402.    368.        378.
# ℹ 90 more rows
…
boot_2_stats <- data.frame(resample1 = 1:n_rep1) |>
  mutate(first_boot = map(1:n_rep1, ~boot_1_func(df = heroin))) |>
  mutate(second_boot = map(first_boot, boot_2_func, reps = n_rep2)) 

Summarizing the double bootstrap

results
summary for resample 1
summary for all resamples

boot_2_stats |>
  unnest(second_boot) |>
  unnest(first_boot) 

# A tibble: 476,000 × 12
   resample1    id clinic status times prison  dose resample2 boot_med
       <int> <dbl>  <dbl>  <dbl> <dbl>  <dbl> <dbl>     <int>    <dbl>
 1         1   257      1      1   204      0    50         1      368
 2         1   230      1      0    28      0    50         1      368
 3         1   229      1      1   216      0    50         1      368
 4         1   186      2      0   683      0   100         1      368
 5         1   119      2      0   684      0    65         1      368
 6         1    73      1      0   405      0    80         1      368
 7         1    41      1      1   550      1    60         1      368
 8         1    75      1      0   905      0    80         1      368
 9         1    68      1      0   439      0    80         1      368
10         1   224      1      1   546      1    50         1      368
# ℹ 475,990 more rows
# ℹ 3 more variables: boot_tr_mean <dbl>, boot_2_med <dbl>,
#   boot_2_tr_mean <dbl>
…
boot_t_stats <- boot_2_stats |>
  unnest(second_boot) |>
  unnest(first_boot) |>
  group_by(resample1) |>
  summarize(boot_sd_med = sd(boot_2_med),
            boot_sd_tr_mean = sd(boot_2_tr_mean),
            boot_med = mean(boot_med),  # doesn't do anything, just copies over
            boot_tr_mean = mean(boot_tr_mean))  |> # the variables into the output
  mutate(boot_t_med = (boot_med - mean(boot_med)) / boot_sd_med,
            boot_t_tr_mean = (boot_tr_mean - mean(boot_tr_mean)) / boot_sd_tr_mean)

boot_t_stats

# A tibble: 100 × 7
   resample1 boot_sd_med boot_sd_tr_mean boot_med boot_tr_mean boot_t_med
       <int>       <dbl>           <dbl>    <dbl>        <dbl>      <dbl>
 1         1        32.5            21.5     368          372.     -0.154
 2         2        24.2            18.8     358          363.     -0.619
 3         3        32.0            21.1     431          421.      1.81 
 4         4        49.1            34.0     332.         350.     -0.845
 5         5        22.7            13.4     310.         331.     -2.75 
 6         6        20.3            19.9     376          382.      0.148
 7         7        35.3            22.1     366          365.     -0.198
 8         8        15.0            16.4     378.         382.      0.367
 9         9        27.6            20.9     394          386.      0.761
10        10        38.5            19.6     392.         402.      0.481
# ℹ 90 more rows
# ℹ 1 more variable: boot_t_tr_mean <dbl>

95% Bootstrap-t CI

Note that the t-value is needed (which requires a different SE for each bootstrap sample).

t-values
multipliers
pull numbers
BS-t CI

boot_t_stats |>
  select(boot_t_med, boot_t_tr_mean)

# A tibble: 100 × 2
   boot_t_med boot_t_tr_mean
        <dbl>          <dbl>
 1     -0.154         -0.249
 2     -0.619         -0.790
 3      1.81           2.04 
 4     -0.845         -0.824
 5     -2.75          -3.50 
 6      0.148          0.235
 7     -0.198         -0.570
 8      0.367          0.261
 9      0.761          0.406
10      0.481          1.26 
# ℹ 90 more rows
…
